{
	"steps":
	[
		{
			"type": "navigate",
			"value": "{0}"
		},
		{
			"type": "setvar",
			"key": "saveDir",
			"value": "{1}"
		},
		{
			"type": "setvar",
			"key": "featureset",
			"value": "{2}"
		},
		{
			"type": "setvar",
			"key": "feature_gdrive",
			"code": "let flags='{featureset}'.split(',').filter(f=>!!f);return !flags.length||flags.includes('gdrive')"
		},
		{
			"type": "setvar",
			"key": "feature_mega",
			"code": "let flags='{featureset}'.split(',').filter(f=>!!f);return !flags.length||flags.includes('mega')"
		},
		{
			"type": "setvar",
			"key": "feature_newgrounds",
			"code": "let flags='{featureset}'.split(',').filter(f=>!!f);return !flags.length||flags.includes('newgrounds')"
		},
		{
			"type": "setvar",
			"key": "feature_dropbox",
			"code": "let flags='{featureset}'.split(',').filter(f=>!!f);return !flags.length||flags.includes('dropbox')"
		},
		{
			"type": "setvar",
			"key": "feature_youtube",
			"code": "let flags='{featureset}'.split(',').filter(f=>!!f);return !flags.length||flags.includes('youtube')"
		},
		{
			"type": "setvar",
			"key": "feature_plain_link",
			"code": "let flags='{featureset}'.split(',').filter(f=>!!f);return !flags.length||flags.includes('plain_link')"
		},
		{
			"type": "setvar",
			"key": "feature_attachments",
			"code": "let flags='{featureset}'.split(',').filter(f=>!!f);return !flags.length||flags.includes('attachments')"
		},
		{
			"type": "setvar",
			"key": "feature_images",
			"code": "let flags='{featureset}'.split(',').filter(f=>!!f);return !flags.length||flags.includes('images')"
		},
		{
			"type": "setvar",
			"key": "feature_anonfiles",
			"code": "let flags='{featureset}'.split(',').filter(f=>!!f);return !flags.length||flags.includes('anonfiles')"
		},
		{
			"type": "setvar",
			"key": "postTitle",
			"valueType": "elementText",
			"selector": "[data-tag=\"post-title\"]",
			"timeout": 30
		},
		{
			"type": "setvar",
			"key": "creator",
			"code": "return [...document.querySelectorAll('main [href*=\"https://www.patreon.com/\"] [data-tag=\"metadata-wrapper\"] > * > [color=\"content\"], a[href*=\"https://www.patreon.com/\"] > div > div > div > div > div > [color=\"content\"], main div:nth-child(1) > a[href*=\"https://www.patreon.com/\"]:nth-child(3)')].map(e=>e.outerText);"
		},
		{
			"type": "setvar",
			"key": "dateRaw",
			"valueType": "elementText",
			"selector": "[data-tag=\"post-published-at\"]"
		},
		{
			"type": "setvar",
			"key": "date",
			"valueType": "dateParser",
			"value": "{dateRaw}",
			"fmt": "%Y/%b"
		},
		{
			"type": "setvar",
			"key": "saveDir",
			"value": "{saveDir}/{creator}/{date}/{postTitle}"
		},
		{
			"type": "setvar",
			"key": "passwordText",
			"code": "return ([...document.querySelectorAll('[data-tag*=post-card] p')].sort((a,b)=>a.innerHTML.length-b.innerHTML.length).filter(e=>e.innerHTML.toLowerCase().indexOf('password') !== -1)[0]||{}).textContent||''"
		},
		{
			"type": "setvar",
			"key": "passwordText",
			"code": "return [...'{passwordText}'.replace(/^.*pass[^\\s]*/gi, () => '').matchAll('[^\\\\s]*')].flatMap(e=>e).filter(e=>e.length)[0]||''"
		},
		{
			"type": "if",
			"value": "{feature_mega}",
			"subtask":
			{
				"steps":
				[
					{
						"type": "foreach",
						"valueType": "elementProperty",
						"propertyName": "href",
						"selector": "a[href^=\"https://mega.nz/\"]",
						"timeout": 1,
						"key": "downloadURL",
						"subtask":
						{
							"steps":
							[
								{
									"type": "if",
									"scoped": false,
									"tabbed": true,
									"code": "return '{downloadURL}'.match(new RegExp('^https://mega.nz/#P!'))",
									"subtask":
									{
										"steps":
										[
											{
												"type": "navigate",
												"value": "{downloadURL}"
											},
											{
												"type": "wait",
												"waitfor": "element",
												"selector": "#password-decrypt-input"
											},
											{
												"code": "document.querySelector('#password-decrypt-input').value='{passwordText}'"
											},
											{
												"type": "click",
												"selector": "span.decrypt-text"
											},
											{
												"type": "wait",
												"waitfor": "element",
												"selector": "div.fm-breadcrumbs-block > a.root",
												"timeout": 60
											},
											{
												"type": "setvar",
												"key": "downloadURL",
												"value": "{url}"
											}
										]
									}
								},
								{
									"type": "exec",
									"exec": "bash",
									"args":
									[
										"-c",
										"megadl-easy --no-progress --print-names \"{downloadURL}\""
									],
									"cwd": "{saveDir}",
									"verbose": true
								}
							]
						}
					}
				]
			}
		},
		{
			"type": "if",
			"value": "{feature_gdrive}",
			"subtask":
			{
				"steps":
				[
					{
						"type": "foreach",
						"valueType": "elementProperty",
						"propertyName": "href",
						"selector": "a[href^=\"https://drive.google.com/file/\"]",
						"timeout": 1,
						"key": "downloadURL",
						"tabbed": true,
						"subtask":
						{
							"steps":
							[
								{
									"type": "navigate",
									"value": "{downloadURL}"
								},
								{
									"type": "click",
									"selector": "div[aria-label=\"Download\"]",
									"tabbed": true,
									"subtask":
									{
										"steps":
										[
											{
												"type": "click",
												"selector": "[type=\"submit\"]"
											},
											{
												"type": "wait",
												"waitfor": "finishedDownloading",
												"timeout": 7200
											},
											{
												"type": "exec",
												"exec": "bash",
												"cwd": "{saveDir}",
												"args":
												[
													"-c",
													"mv -v \"{downloadDir}\"/* ./"
												],
												"verbose": true
											}
										]
									}
								}
							]
						}
					}
				]
			}
		},
		{
			"type": "if",
			"value": "{feature_attachments}",
			"subtask":
			{
				"steps":
				[
					{
						"type": "foreach",
						"valueType": "elementID",
						"propertyName": "href",
						"selector": "[data-tag=\"post-card\"] div a[href*=\"https://www.patreon.com/file?\"], a[data-tag=\"post-attachment-link\"]",
						"timeout": 1,
						"key": "i",
						"subtask":
						{
							"steps":
							[
								{
									"args": ["{i}"],
									"code": "document.querySelector(`#${arguments[0]}`).target='_blank'"
								},
								{
									"type": "click",
									"selector": "#{i}",
									"tabbed": true,
									"subtask":
									{
										"steps":
										[
											{
												"type": "if",
												"selector": "[data-tag=\"error-page\"]",
												"not": true,
												"timeout": 30,
												"subtask":
												{
													"steps":
													[
														{
															"type": "wait",
															"waitfor": "finishedDownloading",
															"timeout": 600
														},
														{
															"type": "exec",
															"exec": "bash",
															"cwd": "{saveDir}",
															"args":
															[
																"-c",
																"mv -v \"{downloadDir}\"/* ./"
															],
															"verbose": true
														}
													]
												}
											}
										]
									}
								}
							]
						}
					}
				]
			}
		},
		{
			"type": "if",
			"value": "{feature_plain_link}",
			"subtask":
			{
				"steps":
				[
					{
						"type": "foreach",
						"valueType": "elementProperty",
						"propertyName": "href",
						"selector": "[data-tag=\"post-card\"] a[href^=\"https://\"]",
						"key": "downloadURL",
						"timeout": 1,
						"subtask":
						{
							"steps":
							[
								{
									"type": "if",
									"args": ["{downloadURL}"],
									"code": "return /file.*\\.(zip|apk|rar|7z|exe)$/.test(arguments[0])",
									"subtask":
									{
										"steps":
										[
											{
												"type": "exec",
												"exec": "wget",
												"args": ["-nc", "--no-verbose", "{downloadURL}"],
												"cwd": "{saveDir}"
											}
										]
									}
								}
							]
						}
					}
				]
			}
		},
		{
			"type": "if",
			"value": "{feature_dropbox}",
			"subtask":
			{
				"steps":
				[
					{
						"type": "foreach",
						"valueType": "elementProperty",
						"propertyName": "href",
						"selector": "[data-tag=\"post-card\"] a[href^=\"https://www.dropbox.com/\"]",
						"key": "downloadURL",
						"tabbed": true,
						"timeout": 1,
						"subtask":
						{
							"steps":
							[
								{
									"type": "navigate",
									"value": "{downloadURL}"
								},
								{
									"type": "if",
									"scoped": false,
									"valueType": "elementID",
									"selector": "#shared-link-password",
									"subtask":
									{
										"steps":
										[
											{
												"type": "sendKeys",
												"value": "{passwordText}",
												"selector": "#shared-link-password"
											},
											{
												"type": "if",
												"selector": "#consent-iframe",
												"valueType": "elementID",
												"key": "consentID",
												"subtask":
												{
													"steps":
													[
														{
															"args": ["#{consentID}"],
															"code": "let e=document.querySelector(arguments[0]);e.parentNode.removeChild(e)"
														}
													]
												}
											},
											{
												"type": "click",
												"selector": "button.ContinueButton > span"
											}
										]
									}
								},
								{
									"type": "if",
									"selector": "[aria-label=\"Download\"]",
									"valueType": "elementID",
									"key": "downloadID",
									"timeout": 30,
									"subtask":
									{
										"steps":
										[
											{
												"type": "click",
												"selector": "#{downloadID}"
											}
										]
									}
								},
								{
									"type": "wait",
									"waitfor": "finishedDownloading",
									"timeout": 600
								},
								{
									"type": "exec",
									"exec": "bash",
									"cwd": "{saveDir}",
									"args":
									[
										"-c",
										"mv -v \"{downloadDir}\"/* ./"
									],
									"verbose": true
								}
							]
						}
					}
				]
			}
		},
		{
			"type": "if",
			"value": "{feature_newgrounds}",
			"subtask":
			{
				"steps":
				[
					{
						"type": "foreach",
						"valueType": "elementProperty",
						"propertyName": "href",
						"selector": "[data-tag=\"post-card\"] a[href^=\"https://www.newgrounds.com/art/\"]",
						"key": "downloadURL",
						"tabbed": true,
						"timeout": 1,
						"subtask":
						{
							"steps":
							[
								{
									"type": "navigate",
									"value": "{downloadURL}"
								},
								{
									"type": "setvar",
									"key": "postName",
									"code": "return document.title.replace(/ by .* on Newgrounds.*$/g, '')"
								},
								{
									"type": "setvar",
									"valueType": "elementProperty",
									"propertyName": "src",
									"selector": "img[itemprop=\"image\"]",
									"key": "imageSrc"
								},
								{
									"type": "saveFile",
									"value": "{imageSrc}",
									"file": "{saveDir}/{postName}"
								}
							]
						}
					},
					{
						"type": "foreach",
						"valueType": "elementProperty",
						"propertyName": "href",
						"selector": "[data-tag=\"post-card\"] a[href^=\"https://www.newgrounds.com/portal/view/\"]",
						"key": "downloadURL",
						"tabbed": true,
						"timeout": 1,
						"subtask":
						{
							"steps":
							[
								{
									"type": "navigate",
									"value": "{downloadURL}"
								},
								{
									"type": "setvar",
									"key": "postName",
									"code": "return document.title"
								},
								{
									"type": "click",
									"selector": "div[data-action=\"play\"]"
								},
								{
									"type": "setvar",
									"key": "videoSrc",
									"valueType": "elementProperty",
									"propertyName": "src",
									"selector": ".ng-video-player > video > source"
								},
								{
									"type": "saveFile",
									"value": "{videoSrc}",
									"file": "{saveDir}/{postName}",
									"timeout": 600
								}
							]
						}
					}
				]
			}
		},
		{
			"type": "if",
			"code": "let e=document.querySelector('[title=\"Start playback\"]');return (e||false)&&(e.click()||true);",
			"subtask":
			{
				"steps":
				[
					{
						"type": "wait",
						"timeout": 5
					}
				]
			}
		},
		{
			"type": "if",
			"value": "{feature_youtube}",
			"subtask":
			{
				"steps":
				[
					{
						"type": "foreach",
						"code": "return [...document.querySelectorAll('a[href^=\"https://youtu.be/\"], iframe[src^=\"https://www.youtube.com/embed/\"]')].map(e=>e.href||e.src);",
						"key": "downloadURL",
						"timeout": 1,
						"subtask":
						{
							"steps":
							[
								{
									"type": "exec",
									"exec": "bash",
									"cwd": "{saveDir}",
									"args":
									[
										"-c",
										"yt-dlp '{downloadURL}'"
									],
									"verbose": true
								}
							]
						}
					}
				]
			}
		},
		{
			"type": "if",
			"value": "{feature_anonfiles}",
			"subtask":
			{
				"steps":
				[
					{
						"type": "foreach",
						"selector": "a[href^='https://anonfiles.com/']",
						"valueType": "elementProperty",
						"propertyName": "href",
						"key": "downloadURL",
						"tabbed": true,
						"subtask":
						{
							"steps":
							[
								{
									"type": "navigate",
									"value": "{downloadURL}"
								},
								{
									"type": "setvar",
									"selector": "#download-url",
									"valueType": "elementProperty",
									"propertyName": "href",
									"key": "downloadURL"
								},
								{
									"type": "exec",
									"exec": "wget",
									"args": ["-nc", "--no-verbose", "{downloadURL}"],
									"cwd": "{saveDir}",
									"verbose": true
								}
							]
						}
					}
				]
			}
		},
		{
			"type": "if",
			"value": "{feature_images}",
			"subtask":
			{
				"steps":
				[
					{
						"type": "if",
						"selector": "[data-tag=\"post-card\"] img[data-airgap-id]:first-child",
						"valueType": "elementID",
						"key": "imgMainID",
						"timeout": 1,
						"subtask":
						{
							"steps":
							[
								{
									"type": "click",
									"selector": "#{imgMainID}"
								},
								{
									"type": "while",
									"valueType": "elementID",
									"selector": "[data-target=\"lightbox-content\"]",
									"key": "popupScope",
									"subtask":
									{
										"steps":
										[
											{
												"type": "if",
												"valueType": "elementID",
												"propertyName": "src",
												"selector": "#{popupScope} img[src*=\"patreonusercontent\"]",
												"key": "imageID",
												"subtask":
												{
													"steps":
													[
														{
															"code": "let clone = document.querySelector('#{imageID\\'}').cloneNode(); clone.id=`clone-${clone.id}`; clone.classList.add('downloader-save-image'); document.body.appendChild(clone)"
														}
													]
												}
											},
											{
												"type": "if",
												"valueType": "elementID",
												"selector": "[data-tag=\"nextImage\"]",
												"key": "nextImageID",
												"subtask":
												{
													"steps":
													[
														{
															"type": "click",
															"selector": "#{nextImageID}"
														},
														{
															"type": "setvar",
															"valueType": "elementText",
															"selector": "[data-target=\"lightbox-content\"] div:first-child > p[color=\"light\"]",
															"key": "pageNumText"
														}
													]
												}
											},
											{
												"type": "if",
												"code": "let pageNumMatches=[...'{pageNumText}'.matchAll(/[0-9]+/g)]; return (!pageNumMatches.length||`${pageNumMatches[0]}`==='1')",
												"subtask":
												{
													"steps":
													[
														{
															"type": "click",
															"selector": "button[data-tag=\"close\"]"
														}
													]
												}
											}
										]
									}
								}
							]
						}
					},
					{
						"type": "foreach",
						"valueType": "elementID",
						"selector": "div[data-tag=\"post-card\"] img",
						"key": "imageID",
						"timeout": 1,
						"subtask":
						{
							"steps":
							[
								{
									"code": "let clone = document.querySelector('#{imageID\\'}').cloneNode(); clone.id=`clone-${clone.id}`; clone.classList.add('downloader-save-image'); document.body.appendChild(clone)"
								}
							]
						}
					},
					{
						"type": "setvar",
						"value": "1",
						"key": "savedImageNum"
					},
					{
						"type": "foreach",
						"valueType": "elementProperty",
						"propertyName": "src",
						"selector": ".downloader-save-image",
						"key": "imageSrc",
						"scoped": false,
						"timeout": 1,
						"subtask":
						{
							"steps":
							[
								{
									"type": "if",
									"value": "'true'",
									"scoped": false,
									"tabbed": true,
									"subtask":
									{
										"steps":
										[
											{
												"type": "navigate",
												"value": "{imageSrc}"
											},
											{
												"type": "setvar",
												"key": "filename",
												"code": "return `{savedImageNum}-${document.title.replace(/ \\(.*$/g, '').replace(/[^\\/]*\\//g, '')}`"
											}
										]
									}
								},
								{
									"type": "saveFile",
									"value": "{imageSrc}",
									"file": "{saveDir}/{filename}"
								},
								{
									"type": "setvar",
									"key": "savedImageNum",
									"code": "return `${{savedImageNum}+1}`"
								}
							]
						}
					}
				]
			}
		},
		{
			"type": "exec",
			"cwd": "{saveDir}",
			"exec": "bash",
			"args": ["-c", "echo \"Files saved:\"; find \\( -type d -and -empty \\) -exec false {} + -or -type f -print;"],
			"verbose": true
		}
	]
}
